{
  "TabTitle": "тест помещений",
  "doc_type": "3321212[59572121232]",
  "1507640-176947350+": {
    "label": "Производственное помещение буфета-раздаточной с посудомоечной",
    "sub_groups": {
      "options": [
        {
          "label": "Овощной участок (первичной обработки овощей)",
          "value": "1507640-176947351+"
        },
        {
          "label": "Овощной участок (вторичной обработки овощей)",
          "value": "1507640-176947352+"
        },
        {
          "label": "Холодный участок",
          "value": "1507640-176947353+"
        },
        {
          "label": "Мясо-рыбный участок",
          "value": "1507640-176947354+"
        }
      ]
    }
  },
  "1507640-176947345+": {
    "label": "Обеденные помещения",
    "groups": {
      "133": {
        "label": "Производст1",
        "sub_groups": {
          "options": [
            {
              "label": "Овощ1но",
              "value": "1507640-111+"
            },
            {
              "label": "Овощно",
              "value": "15076410-176947352+"
            },
            {
              "label": "Холодный",
              "value": "1507640-17694117353+"
            },
            {
              "label": "Мясо-ры",
              "value": "15071640-1769147354+"
            }
          ]
        }
      },
      "666+": {
        "label": "Производственное помещение буфета-раздаточной с посудомоечной",
        "sub_groups": {
          "options": [
            {
              "label": "Овощн",
              "value": "1502327640-176947351+"
            },
            {
              "label": "Овощно",
              "value": "1502327640-176947352+"
            },
            {
              "label": "Холодный",
              "value": "1507232640-176947353+"
            },
            {
              "label": "Мясо-р",
              "value": "1502327640-176947354+"
            }
          ]
        }
      },
      "1507640-176947666+": {
        "label": "Производственное помещение буфета-раздаточной с посудомоечной",
        "sub_groups": {
          "options": [
            {
              "label": "Овощной участок (первичной обработки овощей)",
              "value": "1507640-176947351+"
            },
            {
              "label": "Овощной участок (вторичной обработки овощей)",
              "value": "1507640-176947352+"
            },
            {
              "label": "Холодный участок",
              "value": "1507640-176947353+"
            },
            {
              "label": "Мясо-рыбный участок",
              "value": "1507640-176947354+"
            }
          ]
        }
      },
      "1507640-176947667+": {
        "label": "Производственное помещение буфета-раздато12121чной с посудомоечной",
        "sub_groups": {
          "options": [
            {
              "label": "Овощной 121участок (первичной обработки овощей)",
              "value": "1507640-17694712121351+"
            },
            {
              "label": "Овощной уч121асток (вторичной обработки овощей)",
              "value": "1507640-1769121247352+"
            },
            {
              "label": "Холодный 121участок",
              "value": "1507640-176933347353+"
            },
            {
              "label": "Мясо-рыбн121ый участок",
              "value": "1507640-1769477676354+"
            }
          ]
        }
      }
    }
  }
}

