{
	"TabTitle": "Сведения о наличии оборудования объекта питания (Форма 3М)",
	"Non-mechanicalEquipment": {"label": "Немеханическое оборудование", "groups": {
	}},
	"ProductionTable": {"label": "Стол производственный*", "groups": {
		"ProductionTableGroups6": {"label": "до 6 лет",
			"required": true,
			"type":"input",
			"inputType": "number",
			"options": [
			]},
		"ProductionTableGroups6-12": {"label": "6-12 лет",
			"required": true,
			"type":"input",
			"inputType": "number",
			"options": [
			]},
		"ProductionTableGroups12": {"label": "больше 12 лет",
			"required": true,
			"type":"input",
			"inputType": "number",
			"options": [
			]}
	}},
	"ProductionRack": {"label": "Стеллаж производственный**", "groups": {
		"ProductionRackGroups6": {"label": "до 6 лет",
			"required": true,
			"type":"input",
			"inputType": "number",
			"options": [
			]},
		"ProductionRackGroups6-12": {"label": "6-12 лет",
			"required": true,
			"type":"input",
			"inputType": "number",
			"options": [
			]},
		"ProductionRackGroups12": {"label": "больше 12 лет",
			"required": true,
			"type":"input",
			"inputType": "number",
			"options": [
			]}
	}},
	"Single-sectionWashingBath": {"label": "Ванна моечная односекционная", "groups": {
		"Single-sectionWashingBathGroups6": {"label": "до 6 лет",
			"required": true,
			"type":"input",
			"inputType": "number",
			"options": [
			]},
		"Single-sectionWashingBathGroups6-12": {"label": "6-12 лет",
			"required": true,
			"type":"input",
			"inputType": "number",
			"options": [
			]},
		"Single-sectionWashingBathGroups12": {"label": "больше 12 лет",
			"required": true,
			"type":"input",
			"inputType": "number",
			"options": [
			]}
	}},
	"Two-pieceWashingBath": {"label": "Ванна моечная двухсекционная", "groups": {
		"Two-pieceWashingBathGroups6": {"label": "до 6 лет",
			"required": true,
			"type":"input",
			"inputType": "number",
			"options": [
			]},
		"Two-pieceWashingBathGroups6-12": {"label": "6-12 лет",
			"required": true,
			"type":"input",
			"inputType": "number",
			"options": [
			]},
		"Two-pieceWashingBathGroups12": {"label": "больше 12 лет",
			"required": true,
			"type":"input",
			"inputType": "number",
			"options": [
			]}
	}},
	"Three-pieceWashingBath": {"label": "Ванна моечная трехсекционная", "groups": {
		"Three-pieceWashingBathGroups6": {"label": "до 6 лет",
			"required": true,
			"type":"input",
			"inputType": "number",
			"options": [
			]},
		"Three-pieceWashingBathGroups6-12": {"label": "6-12 лет",
			"required": true,
			"type":"input",
			"inputType": "number",
			"options": [
			]},
		"Three-pieceWashingBathGroups12": {"label": "больше 12 лет",
			"required": true,
			"type":"input",
			"inputType": "number",
			"options": [
			]}
	}},
	"ServingTrolley": {"label": "Тележка сервировочная", "groups": {
		"ServingTrolleyGroups6": {"label": "до 6 лет",
			"required": true,
			"type":"input",
			"inputType": "number",
			"options": [
			]},
		"ServingTrolleyGroups6-12": {"label": "6-12 лет",
			"required": true,
			"type":"input",
			"inputType": "number",
			"options": [
			]},
		"ServingTrolleyGroups12": {"label": "больше 12 лет",
			"required": true,
			"type":"input",
			"inputType": "number",
			"options": [
			]}
	}},
	"RefrigerationEquipment": {"label": "Холодильное оборудование", "groups": {
	}},
	"HouseholdRefrigerator": {"label": "Холодильник бытовой", "groups": {
		"HouseholdRefrigeratorGroups6": {"label": "до 6 лет",
			"required": true,
			"type":"input",
			"inputType": "number",
			"options": [
			]},
		"HouseholdRefrigeratorGroups6-12": {"label": "6-12 лет",
			"required": true,
			"type":"input",
			"inputType": "number",
			"options": [
			]},
		"HouseholdRefrigeratorGroups12": {"label": "больше 12 лет",
			"required": true,
			"type":"input",
			"inputType": "number",
			"options": [
			]}
	}},
	"Low-temperatureRefrigeratorCabinet1": {"label": "Шкаф холодильный низкотемпературный объемом до 0,8 м3", "groups": {
		"Low-temperatureRefrigeratorCabinet1Groups6": {"label": "до 6 лет",
			"required": true,
			"type":"input",
			"inputType": "number",
			"options": [
			]},
		"Low-temperatureRefrigeratorCabinet1Groups6-12": {"label": "6-12 лет",
			"required": true,
			"type":"input",
			"inputType": "number",
			"options": [
			]},
		"Low-temperatureRefrigeratorCabinet1Groups12": {"label": "больше 12 лет",
			"required": true,
			"type":"input",
			"inputType": "number",
			"options": [
			]}
	}},
	"Low-temperatureRefrigeratorCabinet2": {"label": "Шкаф холодильный низкотемпературный объемом 0,8 м3 и более", "groups": {
		"Low-temperatureRefrigeratorCabinet2Groups6": {"label": "до 6 лет",
			"required": true,
			"type":"input",
			"inputType": "number",
			"options": [
			]},
		"Low-temperatureRefrigeratorCabinet2Groups6-12": {"label": "6-12 лет",
			"required": true,
			"type":"input",
			"inputType": "number",
			"options": [
			]},
		"Low-temperatureRefrigeratorCabinet2Groups12": {"label": "больше 12 лет",
			"required": true,
			"type":"input",
			"inputType": "number",
			"options": [
			]}
	}},
	"Medium-temperatureRefrigeratorCabinet1": {"label": "Шкаф холодильный среднетемпературный объемом до 0,8 м3", "groups": {
		"Medium-temperatureRefrigeratorCabinet1Groups6": {"label": "до 6 лет",
			"required": true,
			"type":"input",
			"inputType": "number",
			"options": [
			]},
		"Medium-temperatureRefrigeratorCabinet1Groups6-12": {"label": "6-12 лет",
			"required": true,
			"type":"input",
			"inputType": "number",
			"options": [
			]},
		"Medium-temperatureRefrigeratorCabinet1Groups12": {"label": "больше 12 лет",
			"required": true,
			"type":"input",
			"inputType": "number",
			"options": [
			]}
	}},
	"Medium-temperatureRefrigeratorCabinet2": {"label": "Шкаф холодильный среднетемпературный объемом 0,8 м3 и более", "groups": {
		"Medium-temperatureRefrigeratorCabinet2Groups6": {"label": "до 6 лет",
			"required": true,
			"type":"input",
			"inputType": "number",
			"options": [
			]},
		"Medium-temperatureRefrigeratorCabinet2Groups6-12": {"label": "6-12 лет",
			"required": true,
			"type":"input",
			"inputType": "number",
			"options": [
			]},
		"Medium-temperatureRefrigeratorCabinet2Groups12": {"label": "больше 12 лет",
			"required": true,
			"type":"input",
			"inputType": "number",
			"options": [
			]}
	}},
	"FreezerChest1": {"label": "Ларь морозильный объемом до 300 см3", "groups": {
		"FreezerChest1Groups6": {"label": "до 6 лет",
			"required": true,
			"type":"input",
			"inputType": "number",
			"options": [
			]},
		"FreezerChest1Groups6-12": {"label": "6-12 лет",
			"required": true,
			"type":"input",
			"inputType": "number",
			"options": [
			]},
		"FreezerChest1Groups12": {"label": "больше 12 лет",
			"required": true,
			"type":"input",
			"inputType": "number",
			"options": [
			]}
	}},
	"FreezerChest2": {"label": "Ларь морозильный объемом 300 см3 и более", "groups": {
		"FreezerChest2Groups6": {"label": "до 6 лет",
			"required": true,
			"type":"input",
			"inputType": "number",
			"options": [
			]},
		"FreezerChest2Groups6-12": {"label": "6-12 лет",
			"required": true,
			"type":"input",
			"inputType": "number",
			"options": [
			]},
		"FreezerChest2Groups12": {"label": "больше 12 лет",
			"required": true,
			"type":"input",
			"inputType": "number",
			"options": [
			]}
	}},
	"ColdStorageRoom1": {"label": "Камера холодильная объемом до 6 м3", "groups": {
		"ColdStorageRoom1Groups6": {"label": "до 6 лет",
			"required": true,
			"type":"input",
			"inputType": "number",
			"options": [
			]},
		"ColdStorageRoom1Groups6-12": {"label": "6-12 лет",
			"required": true,
			"type":"input",
			"inputType": "number",
			"options": [
			]},
		"ColdStorageRoom1Groups12": {"label": "больше 12 лет",
			"required": true,
			"type":"input",
			"inputType": "number",
			"options": [
			]}
	}},
	"ColdStorageRoom2": {"label": "Камера холодильная объемом более 6 м3", "groups": {
		"ColdStorageRoom2Groups6": {"label": "до 6 лет",
			"required": true,
			"type":"input",
			"inputType": "number",
			"options": [
			]},
		"ColdStorageRoom2Groups6-12": {"label": "6-12 лет",
			"required": true,
			"type":"input",
			"inputType": "number",
			"options": [
			]},
		"ColdStorageRoom2Groups12": {"label": "больше 12 лет",
			"required": true,
			"type":"input",
			"inputType": "number",
			"options": [
			]}
	}},
	"FreezerCompartment1": {"label": "Камера морозильная объемом до 6 м3", "groups": {
		"FreezerCompartment1Groups6": {"label": "до 6 лет",
			"required": true,
			"type":"input",
			"inputType": "number",
			"options": [
			]},
		"FreezerCompartment1Groups6-12": {"label": "6-12 лет",
			"required": true,
			"type":"input",
			"inputType": "number",
			"options": [
			]},
		"FreezerCompartment1Groups12": {"label": "больше 12 лет",
			"required": true,
			"type":"input",
			"inputType": "number",
			"options": [
			]}
	}},
	"FreezerCompartment2": {"label": "Камера морозильная объемом более 6 м3", "groups": {
		"FreezerCompartment2Groups6": {"label": "до 6 лет",
			"required": true,
			"type":"input",
			"inputType": "number",
			"options": [
			]},
		"FreezerCompartment2Groups6-12": {"label": "6-12 лет",
			"required": true,
			"type":"input",
			"inputType": "number",
			"options": [
			]},
		"FreezerCompartment2Groups12": {"label": "больше 12 лет",
			"required": true,
			"type":"input",
			"inputType": "number",
			"options": [
			]}
	}},
	"WeightMeasuringEquipment": {"label": "Весоизмерительное оборудование", "groups": {
	}},
	"ControlScalesElectronicMechanical": {"label": "Весы контрольные, электронные или механические", "groups": {
		"ControlScalesElectronicMechanicalGroups6": {"label": "до 6 лет",
			"required": true,
			"type":"input",
			"inputType": "number",
			"options": [
			]},
		"ControlScalesElectronicMechanicalGroups6-12": {"label": "6-12 лет",
			"required": true,
			"type":"input",
			"inputType": "number",
			"options": [
			]},
		"ControlScalesElectronicMechanicalGroups12": {"label": "больше 12 лет",
			"required": true,
			"type":"input",
			"inputType": "number",
			"options": [
			]}
	}},
	"CommercialScalesElectronicMechanical": {"label": "Весы товарные, электронные или механические", "groups": {
		"CommercialScalesElectronicMechanicalGroups6": {"label": "до 6 лет",
			"required": true,
			"type":"input",
			"inputType": "number",
			"options": [
			]},
		"CommercialScalesElectronicMechanicalGroups6-12": {"label": "6-12 лет",
			"required": true,
			"type":"input",
			"inputType": "number",
			"options": [
			]},
		"CommercialScalesElectronicMechanicalGroups12": {"label": "больше 12 лет",
			"required": true,
			"type":"input",
			"inputType": "number",
			"options": [
			]}
	}},
	"ThermalEquipment": {"label": "Тепловое оборудование", "groups": {
	}},
	"ElectricStove1": {"label": "Плита электрическая, с площадью жарочной поверхности 0,24 -0,34 кв.м без духового шкафа", "groups": {
		"ElectricStove1Groups6": {"label": "до 6 лет",
			"required": true,
			"type":"input",
			"inputType": "number",
			"options": [
			]},
		"ElectricStove1Groups6-12": {"label": "6-12 лет",
			"required": true,
			"type":"input",
			"inputType": "number",
			"options": [
			]},
		"ElectricStove1Groups12": {"label": "больше 12 лет",
			"required": true,
			"type":"input",
			"inputType": "number",
			"options": [
			]}
	}},
	"ElectricStove2": {"label": "Плита электрическая, с площадью жарочной поверхности 0,24 -0,34 кв.м с духовым шкафом", "groups": {
		"ElectricStove2Groups6": {"label": "до 6 лет",
			"required": true,
			"type":"input",
			"inputType": "number",
			"options": [
			]},
		"ElectricStove2Groups6-12": {"label": "6-12 лет",
			"required": true,
			"type":"input",
			"inputType": "number",
			"options": [
			]},
		"ElectricStove2Groups12": {"label": "больше 12 лет",
			"required": true,
			"type":"input",
			"inputType": "number",
			"options": [
			]}
	}},
	"ElectricStove3": {"label": "Плита электрическая, с площадью жарочной поверхности 0,48-0,51 кв.м без духового шкафа", "groups": {
		"ElectricStove3Groups6": {"label": "до 6 лет",
			"required": true,
			"type":"input",
			"inputType": "number",
			"options": [
			]},
		"ElectricStove3Groups6-12": {"label": "6-12 лет",
			"required": true,
			"type":"input",
			"inputType": "number",
			"options": [
			]},
		"ElectricStove3Groups12": {"label": "больше 12 лет",
			"required": true,
			"type":"input",
			"inputType": "number",
			"options": [
			]}
	}},
	"ElectricStove4": {"label": "Плита электрическая, с площадью жарочной поверхности 0,48-0,51 кв.м с духовым шкафом", "groups": {
		"ElectricStove4Groups6": {"label": "до 6 лет",
			"required": true,
			"type":"input",
			"inputType": "number",
			"options": [
			]},
		"ElectricStove4Groups6-12": {"label": "6-12 лет",
			"required": true,
			"type":"input",
			"inputType": "number",
			"options": [
			]},
		"ElectricStove4Groups12": {"label": "больше 12 лет",
			"required": true,
			"type":"input",
			"inputType": "number",
			"options": [
			]}
	}},
	"ElectricFryingPan": {"label": "Сковорода электрическая", "groups": {
		"ElectricFryingPanGroups6": {"label": "до 6 лет",
			"required": true,
			"type":"input",
			"inputType": "number",
			"options": [
			]},
		"ElectricFryingPanGroups6-12": {"label": "6-12 лет",
			"required": true,
			"type":"input",
			"inputType": "number",
			"options": [
			]},
		"ElectricFryingPanGroups12": {"label": "больше 12 лет",
			"required": true,
			"type":"input",
			"inputType": "number",
			"options": [
			]}
	}},
	"CombiOven1": {"label": "Пароконвектомат до 10 уровней", "groups": {
		"CombiOven1Groups6": {"label": "до 6 лет",
			"required": true,
			"type":"input",
			"inputType": "number",
			"options": [
			]},
		"CombiOven1Groups6-12": {"label": "6-12 лет",
			"required": true,
			"type":"input",
			"inputType": "number",
			"options": [
			]},
		"CombiOven1Groups12": {"label": "больше 12 лет",
			"required": true,
			"type":"input",
			"inputType": "number",
			"options": [
			]}
	}},
	"CombiOven2": {"label": "Пароконвектомат до 20 уровней", "groups": {
		"CombiOven2Groups6": {"label": "до 6 лет",
			"required": true,
			"type":"input",
			"inputType": "number",
			"options": [
			]},
		"CombiOven2Groups6-12": {"label": "6-12 лет",
			"required": true,
			"type":"input",
			"inputType": "number",
			"options": [
			]},
		"CombiOven2Groups12": {"label": "больше 12 лет",
			"required": true,
			"type":"input",
			"inputType": "number",
			"options": [
			]}
	}},
	"FryingCabinet1": {"label": "Шкаф жарочный односекционный", "groups": {
		"FryingCabinet1Groups6": {"label": "до 6 лет",
			"required": true,
			"type":"input",
			"inputType": "number",
			"options": [
			]},
		"FryingCabinet1Groups6-12": {"label": "6-12 лет",
			"required": true,
			"type":"input",
			"inputType": "number",
			"options": [
			]},
		"FryingCabinet1Groups12": {"label": "больше 12 лет",
			"required": true,
			"type":"input",
			"inputType": "number",
			"options": [
			]}
	}},
	"FryingCabinet2": {"label": "Шкаф жарочный двухсекционный", "groups": {
		"FryingCabinet2Groups6": {"label": "до 6 лет",
			"required": true,
			"type":"input",
			"inputType": "number",
			"options": [
			]},
		"FryingCabinet2Groups6-12": {"label": "6-12 лет",
			"required": true,
			"type":"input",
			"inputType": "number",
			"options": [
			]},
		"FryingCabinet2Groups12": {"label": "больше 12 лет",
			"required": true,
			"type":"input",
			"inputType": "number",
			"options": [
			]}
	}},
	"FryingCabinet3": {"label": "Шкаф жарочный трехсекционный", "groups": {
		"FryingCabinet3Groups6": {"label": "до 6 лет",
			"required": true,
			"type":"input",
			"inputType": "number",
			"options": [
			]},
		"FryingCabinet3Groups6-12": {"label": "6-12 лет",
			"required": true,
			"type":"input",
			"inputType": "number",
			"options": [
			]},
		"FryingCabinet3Groups12": {"label": "больше 12 лет",
			"required": true,
			"type":"input",
			"inputType": "number",
			"options": [
			]}
	}},
	"BakingCabinet": {"label": "Шкаф пекарский", "groups": {
		"BakingCabinetGroups6": {"label": "до 6 лет",
			"required": true,
			"type":"input",
			"inputType": "number",
			"options": [
			]},
		"BakingCabinetGroups6-12": {"label": "6-12 лет",
			"required": true,
			"type":"input",
			"inputType": "number",
			"options": [
			]},
		"BakingCabinetGroups12": {"label": "больше 12 лет",
			"required": true,
			"type":"input",
			"inputType": "number",
			"options": [
			]}
	}},
	"MicrowaveOven": {"label": "Печь СВЧ", "groups": {
		"MicrowaveOvenGroups6": {"label": "до 6 лет",
			"required": true,
			"type":"input",
			"inputType": "number",
			"options": [
			]},
		"MicrowaveOvenGroups6-12": {"label": "6-12 лет",
			"required": true,
			"type":"input",
			"inputType": "number",
			"options": [
			]},
		"MicrowaveOvenGroups12": {"label": "больше 12 лет",
			"required": true,
			"type":"input",
			"inputType": "number",
			"options": [
			]}
	}},
	"ElectricFood-cookingBoiler1": {"label": "Котел пищеварочный электрический до 100 л", "groups": {
		"ElectricFood-cookingBoiler1Groups6": {"label": "до 6 лет",
			"required": true,
			"type":"input",
			"inputType": "number",
			"options": [
			]},
		"ElectricFood-cookingBoiler1Groups6-12": {"label": "6-12 лет",
			"required": true,
			"type":"input",
			"inputType": "number",
			"options": [
			]},
		"ElectricFood-cookingBoiler1Groups12": {"label": "больше 12 лет",
			"required": true,
			"type":"input",
			"inputType": "number",
			"options": [
			]}
	}},
	"ElectricFood-cookingBoiler2": {"label": "Котел пищеварочный электрический до 250 л", "groups": {
		"ElectricFood-cookingBoiler2Groups6": {"label": "до 6 лет",
			"required": true,
			"type":"input",
			"inputType": "number",
			"options": [
			]},
		"ElectricFood-cookingBoiler2Groups6-12": {"label": "6-12 лет",
			"required": true,
			"type":"input",
			"inputType": "number",
			"options": [
			]},
		"ElectricFood-cookingBoiler2Groups12": {"label": "больше 12 лет",
			"required": true,
			"type":"input",
			"inputType": "number",
			"options": [
			]}
	}},
	"ElectricBoiler": {"label": "Кипятильник электрический", "groups": {
		"ElectricBoilerGroups6": {"label": "до 6 лет",
			"required": true,
			"type":"input",
			"inputType": "number",
			"options": [
			]},
		"ElectricBoilerGroups6-12": {"label": "6-12 лет",
			"required": true,
			"type":"input",
			"inputType": "number",
			"options": [
			]},
		"ElectricBoilerGroups12": {"label": "больше 12 лет",
			"required": true,
			"type":"input",
			"inputType": "number",
			"options": [
			]}
	}},
	"BakingOven": {"label": "Печь хлебопекарная", "groups": {
		"BakingOvenGroups6": {"label": "до 6 лет",
			"required": true,
			"type":"input",
			"inputType": "number",
			"options": [
			]},
		"BakingOvenGroups6-12": {"label": "6-12 лет",
			"required": true,
			"type":"input",
			"inputType": "number",
			"options": [
			]},
		"BakingOvenGroups12": {"label": "больше 12 лет",
			"required": true,
			"type":"input",
			"inputType": "number",
			"options": [
			]}
	}},
	"MechanicalEquipmen": {"label": "Механическое оборудование", "groups": {
	}},
	"PotatoCleaningMachine": {"label": "Машина картофелеочистительная", "groups": {
		"PotatoCleaningMachineGroups6": {"label": "до 6 лет",
			"required": true,
			"type":"input",
			"inputType": "number",
			"options": [
			]},
		"PotatoCleaningMachineGroups6-12": {"label": "6-12 лет",
			"required": true,
			"type":"input",
			"inputType": "number",
			"options": [
			]},
		"PotatoCleaningMachineGroups12": {"label": "больше 12 лет",
			"required": true,
			"type":"input",
			"inputType": "number",
			"options": [
			]}
	}},
	"VegetableCuttingMachine": {"label": "Машина овощерезательная", "groups": {
		"VegetableCuttingMachineGroups6": {"label": "до 6 лет",
			"required": true,
			"type":"input",
			"inputType": "number",
			"options": [
			]},
		"VegetableCuttingMachineGroups6-12": {"label": "6-12 лет",
			"required": true,
			"type":"input",
			"inputType": "number",
			"options": [
			]},
		"VegetableCuttingMachineGroups12": {"label": "больше 12 лет",
			"required": true,
			"type":"input",
			"inputType": "number",
			"options": [
			]}
	}},
	"UniversalKitchenMachine": {"label": "Машина (привод) универсальная кухонная", "groups": {
		"UniversalKitchenMachineGroups6": {"label": "до 6 лет",
			"required": true,
			"type":"input",
			"inputType": "number",
			"options": [
			]},
		"UniversalKitchenMachineGroups6-12": {"label": "6-12 лет",
			"required": true,
			"type":"input",
			"inputType": "number",
			"options": [
			]},
		"UniversalKitchenMachineGroups12": {"label": "больше 12 лет",
			"required": true,
			"type":"input",
			"inputType": "number",
			"options": [
			]}
	}},
	"MachineSlicingBoiledVegetables": {"label": "Машина для нарезки овощей вареных", "groups": {
		"MachineSlicingBoiledVegetablesGroups6": {"label": "до 6 лет",
			"required": true,
			"type":"input",
			"inputType": "number",
			"options": [
			]},
		"MachineSlicingBoiledVegetablesGroups6-12": {"label": "6-12 лет",
			"required": true,
			"type":"input",
			"inputType": "number",
			"options": [
			]},
		"MachineSlicingBoiledVegetablesGroups12": {"label": "больше 12 лет",
			"required": true,
			"type":"input",
			"inputType": "number",
			"options": [
			]}
	}},
	"DoughMixerWithDezhami": {"label": "Тестомес с дежами", "groups": {
		"DoughMixerWithDezhamiGroups6": {"label": "до 6 лет",
			"required": true,
			"type":"input",
			"inputType": "number",
			"options": [
			]},
		"DoughMixerWithDezhamiGroups6-12": {"label": "6-12 лет",
			"required": true,
			"type":"input",
			"inputType": "number",
			"options": [
			]},
		"DoughMixerWithDezhamiGroups12": {"label": "больше 12 лет",
			"required": true,
			"type":"input",
			"inputType": "number",
			"options": [
			]}
	}},
	"ElectricMeatGrinder": {"label": "Мясорубка электрическая", "groups": {
		"ElectricMeatGrinderGroups6": {"label": "до 6 лет",
			"required": true,
			"type":"input",
			"inputType": "number",
			"options": [
			]},
		"ElectricMeatGrinderGroups6-12": {"label": "6-12 лет",
			"required": true,
			"type":"input",
			"inputType": "number",
			"options": [
			]},
		"ElectricMeatGrinderGroups12": {"label": "больше 12 лет",
			"required": true,
			"type":"input",
			"inputType": "number",
			"options": [
			]}
	}},
	"ManualMeatGrinder": {"label": "Мясорубка ручная", "groups": {
		"ManualMeatGrinderGroups6": {"label": "до 6 лет",
			"required": true,
			"type":"input",
			"inputType": "number",
			"options": [
			]},
		"ManualMeatGrinderGroups6-12": {"label": "6-12 лет",
			"required": true,
			"type":"input",
			"inputType": "number",
			"options": [
			]},
		"ManualMeatGrinderGroups12": {"label": "больше 12 лет",
			"required": true,
			"type":"input",
			"inputType": "number",
			"options": [
			]}
	}},
	"GastronomicMachine": {"label": "Машина гастрономическая (слайсер, ломтерезка)", "groups": {
		"GastronomicMachineGroups6": {"label": "до 6 лет",
			"required": true,
			"type":"input",
			"inputType": "number",
			"options": [
			]},
		"GastronomicMachineGroups6-12": {"label": "6-12 лет",
			"required": true,
			"type":"input",
			"inputType": "number",
			"options": [
			]},
		"GastronomicMachineGroups12": {"label": "больше 12 лет",
			"required": true,
			"type":"input",
			"inputType": "number",
			"options": [
			]}
	}},
	"FoodProcessor": {"label": "Комбайн кухонный", "groups": {
		"FoodProcessorGroups6": {"label": "до 6 лет",
			"required": true,
			"type":"input",
			"inputType": "number",
			"options": [
			]},
		"FoodProcessorGroups6-12": {"label": "6-12 лет",
			"required": true,
			"type":"input",
			"inputType": "number",
			"options": [
			]},
		"FoodProcessorGroups12": {"label": "больше 12 лет",
			"required": true,
			"type":"input",
			"inputType": "number",
			"options": [
			]}
	}},
	"BreadCuttingMachine": {"label": "Машина хлеборезательная", "groups": {
		"BreadCuttingMachineGroups6": {"label": "до 6 лет",
			"required": true,
			"type":"input",
			"inputType": "number",
			"options": [
			]},
		"BreadCuttingMachineGroups6-12": {"label": "6-12 лет",
			"required": true,
			"type":"input",
			"inputType": "number",
			"options": [
			]},
		"BreadCuttingMachineGroups12": {"label": "больше 12 лет",
			"required": true,
			"type":"input",
			"inputType": "number",
			"options": [
			]}
	}},
	"DistributionLineElements": {"label": "Мармиты и элементы линии раздачи пищи", "groups": {
	}},
	"ThermalContainer": {"label": "Мармит настольный (термоконтейнер)", "groups": {
		"ThermalContainerGroups6": {"label": "до 6 лет",
			"required": true,
			"type":"input",
			"inputType": "number",
			"options": [
			]},
		"ThermalContainerGroups6-12": {"label": "6-12 лет",
			"required": true,
			"type":"input",
			"inputType": "number",
			"options": [
			]},
		"ThermalContainerGroups12": {"label": "больше 12 лет",
			"required": true,
			"type":"input",
			"inputType": "number",
			"options": [
			]}
	}},
	"RefrigeratorModule": {"label": "Прилавок (модуль, витрина) холодильный", "groups": {
		"RefrigeratorModuleGroups6": {"label": "до 6 лет",
			"required": true,
			"type":"input",
			"inputType": "number",
			"options": [
			]},
		"RefrigeratorModuleGroups6-12": {"label": "6-12 лет",
			"required": true,
			"type":"input",
			"inputType": "number",
			"options": [
			]},
		"RefrigeratorModuleGroups12": {"label": "больше 12 лет",
			"required": true,
			"type":"input",
			"inputType": "number",
			"options": [
			]}
	}},
	"1-courseModule": {"label": "Прилавок (модуль) - мармит 1 блюд", "groups": {
		"1-courseModuleGroups6": {"label": "до 6 лет",
			"required": true,
			"type":"input",
			"inputType": "number",
			"options": [
			]},
		"1-courseModuleGroups6-12": {"label": "6-12 лет",
			"required": true,
			"type":"input",
			"inputType": "number",
			"options": [
			]},
		"1-courseModuleGroups12": {"label": "больше 12 лет",
			"required": true,
			"type":"input",
			"inputType": "number",
			"options": [
			]}
	}},
	"2-courseModule": {"label": "Прилавок (модуль) - мармит 2 блюд", "groups": {
		"2-courseModuleGroups6": {"label": "до 6 лет",
			"required": true,
			"type":"input",
			"inputType": "number",
			"options": [
			]},
		"2-courseModuleGroups6-12": {"label": "6-12 лет",
			"required": true,
			"type":"input",
			"inputType": "number",
			"options": [
			]},
		"2-courseModuleGroups12": {"label": "больше 12 лет",
			"required": true,
			"type":"input",
			"inputType": "number",
			"options": [
			]}
	}},
	"NeutralModule": {"label": "Прилавок (модуль) нейтральный", "groups": {
		"NeutralModuleGroups6": {"label": "до 6 лет",
			"required": true,
			"type":"input",
			"inputType": "number",
			"options": [
			]},
		"NeutralModuleGroups6-12": {"label": "6-12 лет",
			"required": true,
			"type":"input",
			"inputType": "number",
			"options": [
			]},
		"NeutralModuleGroups12": {"label": "больше 12 лет",
			"required": true,
			"type":"input",
			"inputType": "number",
			"options": [
			]}
	}},
	"AppliancesModule": {"label": "Прилавок (модуль) для приборов", "groups": {
		"AppliancesModuleGroups6": {"label": "до 6 лет",
			"required": true,
			"type":"input",
			"inputType": "number",
			"options": [
			]},
		"AppliancesModuleGroups6-12": {"label": "6-12 лет",
			"required": true,
			"type":"input",
			"inputType": "number",
			"options": [
			]},
		"AppliancesModuleGroups12": {"label": "больше 12 лет",
			"required": true,
			"type":"input",
			"inputType": "number",
			"options": [
			]}
	}},
	"BoxOfficeModule": {"label": "Прилавок (модуль) касса", "groups": {
		"BoxOfficeModuleGroups6": {"label": "до 6 лет",
			"required": true,
			"type":"input",
			"inputType": "number",
			"options": [
			]},
		"BoxOfficeModuleGroups6-12": {"label": "6-12 лет",
			"required": true,
			"type":"input",
			"inputType": "number",
			"options": [
			]},
		"BoxOfficeModuleGroups12": {"label": "больше 12 лет",
			"required": true,
			"type":"input",
			"inputType": "number",
			"options": [
			]}
	}},
	"DrinksModule": {"label": "Прилавок (модуль) для напитков ", "groups": {
		"DrinksModuleGroups6": {"label": "до 6 лет",
			"required": true,
			"type":"input",
			"inputType": "number",
			"options": [
			]},
		"DrinksModuleGroups6-12": {"label": "6-12 лет",
			"required": true,
			"type":"input",
			"inputType": "number",
			"options": [
			]},
		"DrinksModuleGroups12": {"label": "больше 12 лет",
			"required": true,
			"type":"input",
			"inputType": "number",
			"options": [
			]}
	}},
	"UniversalModule": {"label": "Прилавок (модуль) мармит универсальный", "groups": {
		"UniversalModuleGroups6": {"label": "до 6 лет",
			"required": true,
			"type":"input",
			"inputType": "number",
			"options": [
			]},
		"UniversalModuleGroups6-12": {"label": "6-12 лет",
			"required": true,
			"type":"input",
			"inputType": "number",
			"options": [
			]},
		"UniversalModuleGroups12": {"label": "больше 12 лет",
			"required": true,
			"type":"input",
			"inputType": "number",
			"options": [
			]}
	}},
	"DishwasherSafe": {"label": "Машина посудомоечная", "groups": {
		"DishwasherSafeGroups6": {"label": "до 6 лет",
			"required": true,
			"type":"input",
			"inputType": "number",
			"options": [
			]},
		"DishwasherSafeGroups6-12": {"label": "6-12 лет",
			"required": true,
			"type":"input",
			"inputType": "number",
			"options": [
			]},
		"DishwasherSafeGroups12": {"label": "больше 12 лет",
			"required": true,
			"type":"input",
			"inputType": "number",
			"options": [
			]}
	}},
	"OtherEquipment": {"label": "Прочее оборудование", "groups": {
	}},
	"Ovoscope": {"label": "Овоскоп", "groups": {
		"OvoscopeGroups6": {"label": "до 6 лет",
			"required": true,
			"type":"input",
			"inputType": "number",
			"options": [
			]},
		"OvoscopeGroups6-12": {"label": "6-12 лет",
			"required": true,
			"type":"input",
			"inputType": "number",
			"options": [
			]},
		"OvoscopeGroups12": {"label": "больше 12 лет",
			"required": true,
			"type":"input",
			"inputType": "number",
			"options": [
			]}
	}},
	"ExhaustCabinet": {"label": "Шкаф (зонт) вытяжной", "groups": {
		"ExhaustCabinetGroups6": {"label": "до 6 лет",
			"required": true,
			"type":"input",
			"inputType": "number",
			"options": [
			]},
		"ExhaustCabinetGroups6-12": {"label": "6-12 лет",
			"required": true,
			"type":"input",
			"inputType": "number",
			"options": [
			]},
		"ExhaustCabinetGroups12": {"label": "больше 12 лет",
			"required": true,
			"type":"input",
			"inputType": "number",
			"options": [
			]}
	}},
	"ElectricWaterHeater": {"label": "Водонагреватель электрический", "groups": {
		"ElectricWaterHeaterGroups6": {"label": "до 6 лет",
			"required": true,
			"type":"input",
			"inputType": "number",
			"options": [
			]},
		"ElectricWaterHeaterGroups6-12": {"label": "6-12 лет",
			"required": true,
			"type":"input",
			"inputType": "number",
			"options": [
			]},
		"ElectricWaterHeaterGroups12": {"label": "больше 12 лет",
			"required": true,
			"type":"input",
			"inputType": "number",
			"options": [
			]}
	}},
	"Non-contactThermometer": {"label": "Термометр бесконтактный", "groups": {
		"Non-contactThermometerGroups6": {"label": "до 6 лет",
			"required": true,
			"type":"input",
			"inputType": "number",
			"options": [
			]},
		"Non-contactThermometerGroups6-12": {"label": "6-12 лет",
			"required": true,
			"type":"input",
			"inputType": "number",
			"options": [
			]},
		"Non-contactThermometerGroups12": {"label": "больше 12 лет",
			"required": true,
			"type":"input",
			"inputType": "number",
			"options": [
			]}
	}},
	"UniversalThermometer": {"label": "Термометр универсальный", "groups": {
		"UniversalThermometerGroups6": {"label": "до 6 лет",
			"required": true,
			"type":"input",
			"inputType": "number",
			"options": [
			]},
		"UniversalThermometerGroups6-12": {"label": "6-12 лет",
			"required": true,
			"type":"input",
			"inputType": "number",
			"options": [
			]},
		"UniversalThermometerGroups12": {"label": "больше 12 лет",
			"required": true,
			"type":"input",
			"inputType": "number",
			"options": [
			]}
	}},
	"Bactericidal": {"label": "Установка бактерицидная", "groups": {
		"BactericidalGroups6": {"label": "до 6 лет",
			"required": true,
			"type":"input",
			"inputType": "number",
			"options": [
			]},
		"BactericidalGroups6-12": {"label": "6-12 лет",
			"required": true,
			"type":"input",
			"inputType": "number",
			"options": [
			]},
		"BactericidalGroups12": {"label": "больше 12 лет",
			"required": true,
			"type":"input",
			"inputType": "number",
			"options": [
			]}
	}}
}

